<?xml version="1.0" encoding="utf-8"?>
<!-- Generator: Adobe Illustrator 22.1.0, SVG Export Plug-In . SVG Version: 6.00 Build 0)  -->
<svg version="1.1" xmlns="http://www.w3.org/2000/svg" xmlns:xlink="http://www.w3.org/1999/xlink" x="0px" y="0px"
	 viewBox="0 0 66 66" style="enable-background:new 0 0 66 66;" xml:space="preserve">
<style type="text/css">
	.st0{fill:#CAD1D8;}
	.st1{fill:#9BA7AF;}
	.st2{fill:#FFFFFF;}
	.st3{fill:#E2E5E7;}
	.st4{fill:#595A66;}
	.st5{fill:#ABE1FA;}
	.st6{fill:#6F707E;}
	.st7{fill:#3BB54A;}
	.st8{fill:#FDBA4D;}
	.st9{fill:#F19F35;}
	.st10{fill:#0E9347;}
	.st11{fill:#E6E7E8;}
	.st12{fill:#BCBEC0;}
	.st13{fill:#D1D3D4;}
	.st14{fill:#A7A9AC;}
	.st15{fill:#DCDDDE;}
	.st16{fill:#B1B3B6;}
	.st17{fill:#C7C8CA;}
	.st18{fill:#9D9FA2;}
	.st19{fill:#3689C9;}
	.st20{fill:#EE2C39;}
	.st21{fill:#FFFFFF;stroke:#595A66;stroke-width:2;stroke-miterlimit:10;}
	.st22{fill:#517CBE;}
	.st23{fill:#65CCEF;}
	.st24{fill:#CC202C;}
	.st25{fill:#F16351;}
	.st26{fill:#DDDFE1;}
	.st27{fill:#89C763;}
	.st28{fill:#1B6FAB;}
	.st29{fill:#4C9FD7;}
	.st30{fill:#F19F36;}
	.st31{fill:#D4D5D6;}
	.st32{fill:#35363E;}
	.st33{fill:#1A70AC;}
	.st34{fill:#BD6428;}
	.st35{fill:#A35723;}
	.st36{fill:#A35623;}
	.st37{fill:#165D91;}
	.st38{fill:#699DC4;}
	.st39{fill:#748B9E;}
	.st40{fill:#78B6E4;}
</style>
<g id="screenshot">
	<g id="Layer_116">
	</g>
	<g id="Layer_92">
	</g>
	<g id="Layer_91">
	</g>
</g>
<g id="rating">
</g>
<g id="loading">
	<g id="Layer_51">
	</g>
	<g id="Layer_50">
	</g>
</g>
<g id="settings">
	<g id="Layer_95">
	</g>
	<g id="Layer_54">
	</g>
</g>
<g id="schedule">
	<g id="Layer_49">
	</g>
	<g id="Layer_18">
	</g>
	<g id="Layer_19">
	</g>
</g>
<g id="_x34_04">
</g>
<g id="misc">
	<g id="Layer_53">
	</g>
	<g id="Layer_68">
	</g>
	<g id="Layer_41">
	</g>
	<g id="Layer_115">
	</g>
	<g id="Layer_114">
	</g>
	<g id="Layer_113">
	</g>
	<g id="Layer_112">
	</g>
</g>
<g id="plans">
	<g id="Layer_46">
	</g>
	<g id="Layer_93">
	</g>
	<g id="Layer_90">
	</g>
</g>
<g id="upload">
	<g id="Layer_12">
	</g>
	<g id="Layer_13">
	</g>
	<g id="Layer_24">
	</g>
</g>
<g id="vertical_navigation">
	<g id="Layer_6">
	</g>
	<g id="Layer_7">
	</g>
</g>
<g id="CMS">
	<g id="Layer_16">
	</g>
	<g id="Layer_17">
	</g>
</g>
<g id="audio">
	<g id="Layer_55">
	</g>
	<g id="Layer_56">
	</g>
	<g id="Layer_27">
	</g>
</g>
<g id="search">
	<g id="Layer_4">
	</g>
	<g id="Layer_52">
	</g>
	<g id="Layer_45">
	</g>
	<g id="Layer_42">
	</g>
</g>
<g id="text">
	<g id="Layer_100">
	</g>
	<g id="Layer_99">
	</g>
	<g id="Layer_78">
	</g>
	<g id="Layer_77">
	</g>
	<g id="Layer_76">
	</g>
	<g id="Layer_75">
	</g>
	<g id="Layer_74">
	</g>
	<g id="Layer_9">
	</g>
</g>
<g id="forms">
	<g id="Layer_104">
	</g>
	<g id="Layer_105">
	</g>
	<g id="Layer_110">
	</g>
	<g id="Layer_97">
	</g>
	<g id="Layer_96">
	</g>
	<g id="Layer_71">
		<circle class="st1" cx="4" cy="6.5" r="1"/>
		<circle class="st1" cx="8" cy="6.5" r="1"/>
		<circle class="st1" cx="12" cy="6.5" r="1"/>
		<path class="st0" d="M62,2.5H4c-1.7,0-3,1.3-3,3v54c0,1.7,1.3,3,3,3h58c1.7,0,3-1.3,3-3v-54C65,3.8,63.7,2.5,62,2.5z M63,59.5
			c0,0.6-0.4,1-1,1H4c-0.6,0-1-0.4-1-1v-48c0-0.6,0.4-1,1-1h58c0.6,0,1,0.4,1,1V59.5z"/>
		<path class="st3" d="M62,7.5H16c-0.6,0-1-0.4-1-1l0,0c0-0.6,0.4-1,1-1h46c0.6,0,1,0.4,1,1l0,0C63,7.1,62.6,7.5,62,7.5z"/>
		<path class="st0" d="M30,20.5H7c-0.5,0-1,0.3-1,0.7v24c0,0.4,0.4,0.7,1,0.7H30c0.5,0,1-0.3,1-0.7v-24C31,20.8,30.6,20.5,30,20.5z
			 M30,45.1H7v-24H30V45.1z"/>
		<rect x="7" y="21.2" class="st3" width="23.1" height="24"/>
		<path class="st0" d="M59,14.8H36c-0.5,0-1,0.3-1,0.7v10.3c0,0.4,0.4,0.7,1,0.7H59c0.5,0,1-0.3,1-0.7V15.5
			C60,15.1,59.6,14.8,59,14.8z M59,25.8H36V15.5H59V25.8z"/>
		<rect x="36" y="15.5" class="st3" width="23.1" height="10.3"/>
		<path class="st0" d="M59,28.8H36c-0.5,0-1,0.3-1,0.7v23.3c0,0.4,0.4,0.7,1,0.7H59c0.5,0,1-0.3,1-0.7V29.5
			C60,29.1,59.6,28.8,59,28.8z M59,52.8H36V29.5H59V52.8z"/>
		<rect x="36" y="29.5" class="st3" width="23.1" height="23.3"/>
		<path class="st0" d="M30,47.8H7c-0.5,0-1,0.3-1,0.7v10.3c0,0.4,0.4,0.7,1,0.7H30c0.5,0,1-0.3,1-0.7V48.5
			C31,48.1,30.6,47.8,30,47.8z M30,58.8H7V48.5H30V58.8z"/>
		<rect x="7" y="48.5" class="st3" width="23.1" height="10.3"/>
	</g>
</g>
<g id="_x2D__users">
	<g id="Layer_108">
	</g>
	<g id="Layer_109">
	</g>
	<g id="Layer_111">
	</g>
	<g id="Layer_107">
	</g>
	<g id="Layer_106">
	</g>
	<g id="Layer_103">
	</g>
	<g id="Layer_102">
	</g>
	<g id="Layer_98">
	</g>
	<g id="Layer_101">
	</g>
	<g id="Layer_29">
	</g>
	<g id="Layer_5">
	</g>
</g>
<g id="_x2D__video">
	<g id="Layer_83">
	</g>
	<g id="Layer_82">
	</g>
	<g id="Layer_79">
	</g>
	<g id="Layer_60">
	</g>
	<g id="Layer_59">
	</g>
	<g id="Layer_58">
	</g>
	<g id="Layer_57">
	</g>
</g>
<g id="_x2D__simple">
	<g id="Layer_37">
	</g>
	<g id="Layer_36">
	</g>
	<g id="Layer_35">
	</g>
	<g id="Layer_34">
	</g>
	<g id="Layer_33">
	</g>
	<g id="Layer_32">
	</g>
</g>
<g id="_x2D__graph">
	<g id="Layer_11">
	</g>
	<g id="Layer_40">
	</g>
	<g id="Layer_39">
	</g>
	<g id="Layer_38">
	</g>
	<g id="Layer_44">
	</g>
</g>
<g id="_x2D__shop">
	<g id="Layer_64">
	</g>
	<g id="Layer_63">
	</g>
	<g id="Layer_65">
	</g>
	<g id="Layer_72">
	</g>
	<g id="Layer_62">
	</g>
	<g id="Layer_70">
	</g>
</g>
<g id="_x2D__table">
	<g id="Layer_20">
	</g>
	<g id="Layer_21">
	</g>
	<g id="Layer_22">
	</g>
	<g id="Layer_10">
	</g>
</g>
<g id="_x2D__code">
	<g id="Layer_15">
	</g>
	<g id="Layer_14">
	</g>
</g>
<g id="_x2D__pop-up">
	<g id="Layer_61">
	</g>
	<g id="Layer_31">
	</g>
	<g id="Layer_30">
	</g>
	<g id="Layer_28">
	</g>
	<g id="Layer_26">
	</g>
	<g id="Layer_94">
	</g>
</g>
<g id="_x2D__photo">
	<g id="Layer_2">
	</g>
	<g id="Layer_25">
	</g>
	<g id="Layer_67">
	</g>
	<g id="Layer_66">
	</g>
	<g id="Layer_89">
	</g>
	<g id="Layer_88">
	</g>
	<g id="Layer_87">
	</g>
	<g id="Layer_86">
	</g>
	<g id="Layer_85">
	</g>
	<g id="Layer_84">
	</g>
	<g id="Layer_81">
	</g>
	<g id="Layer_80">
	</g>
	<g id="Layer_73">
	</g>
</g>
<g id="_x2D__map">
	<g id="Layer_3">
	</g>
	<g id="Layer_8">
	</g>
	<g id="Layer_48">
	</g>
	<g id="Layer_47">
	</g>
	<g id="Layer_23">
	</g>
</g>
<g id="_x2D__header">
	<g id="Layer_117">
	</g>
	<g id="Layer_118">
	</g>
	<g id="Layer_119">
	</g>
	<g id="Layer_120">
	</g>
	<g id="Layer_121">
	</g>
</g>
</svg>
